<?xml version="1.0" encoding="utf-8"?>
<!-- Generator: Adobe Illustrator 22.0.1, SVG Export Plug-In . SVG Version: 6.00 Build 0)  -->
<svg version="1.1" id="Layer_1" xmlns="http://www.w3.org/2000/svg" xmlns:xlink="http://www.w3.org/1999/xlink" x="0px" y="0px"
	 viewBox="0 0 399.7 71" style="enable-background:new 0 0 399.7 71;" xml:space="preserve">
<g>
	<path d="M0.3,52.9h4.9l11.9-42.5h-5.7l0.3-1h21.7c5.2,0,10.5,2.6,10.5,9.2c0,6.3-6.6,10.9-14.5,12.4v0.1c5.8,0.3,10.7,3,10.7,9.5
		c0,8.2-9.7,13.3-19,13.3H0L0.3,52.9z M11.5,52.9h8.7c4.6,0,7.1-1.2,9-3.2c2.7-2.9,4.2-8.4,4.2-11.6c0-6.5-5.5-6.6-10.6-6.6h-5.4
		L11.5,52.9z M17.8,30.6h8.3c7.8,0,11.3-7.6,11.3-13.8c0-4.7-2.3-6.3-6.6-6.3h-7.3L17.8,30.6z"/>
</g>
<g>
	<path d="M50.7,25h-5.1l0.3-1.2h2.7c3.7,0,6.8-0.1,8.7-1.6l-3,9.1l0.1,0.1c2-3.6,7.2-8.8,11.8-8.8c3.2,0,4.7,1.8,4.7,3.7
		c0,2.4-2,3.7-3.8,3.7c-2.1,0-2.8-1.4-2.8-2.7c0-1.4,0.4-1.8,0.4-2.1c0-0.5-0.3-0.7-1-0.7c-3.5,0-9.5,7.9-10.6,11.3L47.7,54H42
		L50.7,25z"/>
	<path d="M95.6,32.8c3.7-6.7,5.9-10.6,9.8-10.6c2.1,0,3.5,1.1,3.5,3.7c0,1.9-1.4,3.3-3.2,3.3c-1.4,0-2.9-1-2.9-2.6
		c0-0.7,0.4-1.2,0.4-1.9c0-0.2-0.1-0.4-0.3-0.4c-0.6,0-2.8,2.3-6.2,8.5l-8.4,15.3C82.1,59.3,75.4,71,66.4,71c-3.1,0-5.3-1.7-5.3-4.5
		c0-2.1,1.6-3.7,3.5-3.7c1.7,0,3.1,1,3.1,3.3c0,1.8-1.2,2.1-1.2,2.9c0,0.4,0.4,0.7,1.2,0.7c5.7,0,12.6-10.1,15-14.6l-3.6-26.4
		c-0.2-1.5-0.6-3.6-2-3.6c-2.5,0-5.4,5.8-6.2,7.2l-1-0.4c1-1.6,4.8-9.9,10.8-9.9c3.8,0,4.4,4.3,4.8,7.9l2.2,17h0.1L95.6,32.8z"/>
	<path d="M118.8,3h-5l0.3-1.2h3.3c2.9,0,5.8-0.4,8.2-1.8l-14.1,47.2c-0.4,1.5-0.9,2.6-0.9,3.5s0.5,1.9,1.8,1.9c3.9,0,7.3-5,8.2-6.3
		l0.9,0.6c-1,1.6-5.3,7.5-11,7.5c-2.3,0-5.1-1.3-5.1-4.9c0-1.3,0.5-3,1.3-5.7L118.8,3z"/>
	<path d="M149,47.2c-0.4,1.2-0.8,2.6-0.8,3.8s0.6,2.1,1.8,2.1c2.6,0,5.8-4.9,6.8-6.3l0.7,0.7c-1,1.3-4.2,7.3-8.9,7.3
		c-5,0-5.2-4.3-5.3-6.6h-0.1c-1.8,3-5.9,6.6-10.1,6.6c-7,0-10.9-5.7-10.9-12.5c0-10.3,10.6-20.1,19.8-20.1c4.8,0,6.7,3.9,7.2,6.1
		h0.1l1.4-4.5h5.7L149,47.2z M133.1,53.6c6.2,0,9.8-5.9,11.9-12.8c1.8-6,3.3-9.5,3.3-10.9c0-2.6-2.2-6.5-6.8-6.5
		c-9.4,0-13.7,18.7-13.7,24.4C127.9,51.7,129.8,53.6,133.1,53.6z"/>
	<path d="M166.2,25h-4.6l0.3-1.2h1.5c3.2,0,6.2-0.3,9.4-1.6l-3,10.1h0.1c3.2-5.4,8.8-10.1,14.5-10.1c4.7,0,6.9,2.6,6.9,5.9
		c0,3.2-7,20.3-7,22.2c0,1.2,0.5,2.3,1.7,2.3c3.2,0,6.2-5,7.3-6.4l0.7,0.5c-1.5,2.1-4.9,7.6-10.3,7.6c-3.5,0-4.8-2.1-4.8-5.4
		c0-4.6,7-20,7-23.1c0-1.5-0.8-2.4-2.8-2.4c-3.5,0-12.5,5.4-15.4,15.4l-4.4,15.1h-5.9L166.2,25z"/>
	<path d="M220.6,46c-1.5,2.1-6,8.8-14,8.8c-4,0-11.5-3-11.5-12.5c0-11.3,10.6-20.1,19.8-20.1c3.7,0,8,1.8,8,6.4
		c0,5.7-6.9,9.8-15.2,9.8c-1.9,0-3.8-0.4-5.6-1.1c-0.7,2.8-1.2,5.9-1.2,7.7c0,4.8,1.5,8.6,6.9,8.6c6.3,0,10.9-6.5,12.2-8.2L220.6,46
		z M213.5,23.4c-6.6,0-9.5,7.6-11.2,12.8c1.2,0.4,3.1,1,5.3,1c7.9,0,10.4-6.4,10.4-9.4C218,25.3,216.3,23.4,213.5,23.4z"/>
</g>
<g>
	<path d="M227.4,7.3h6.8v20.1h27V7.3h6.8V54h-6.8V32.6h-27V54h-6.8V7.3z"/>
</g>
<g>
	<path d="M288.9,20.7c11.3,0,17.3,7.5,17.3,17s-6,17-17.3,17s-17.3-7.5-17.3-17S277.6,20.7,288.9,20.7z M288.9,50
		c6.1,0,11.1-4.4,11.1-12.2c0-7.9-5-12.3-11.1-12.3s-11.1,4.4-11.1,12.3C277.8,45.6,282.7,50,288.9,50z"/>
	<path d="M309.1,21.5h5.5v4.8h0.1c2.6-3.6,6.6-5.5,11.5-5.5c4.4,0,8.4,1.6,9.8,5.5c2.4-3.5,6.6-5.5,11.2-5.5
		c7.1,0,11.9,2.7,11.9,9.4V54h-5.9V32.6c0-4-1.2-7.2-6.9-7.2c-5.7,0-9.3,3.3-9.3,8.3v20.2h-5.9V32.6c0-4.2-1.5-7.2-6.7-7.2
		c-7,0-9.5,5.8-9.5,8.3v20.2H309L309.1,21.5L309.1,21.5z"/>
	<path d="M394.7,43.6c-1.6,7.2-7.3,11.1-15.3,11.1c-11.4,0-16.8-7.2-17.1-17.1c0-9.7,7-16.9,16.8-16.9c12.6,0,16.5,10.7,16.2,18.6
		h-26.7c-0.3,5.7,3.2,10.7,11,10.7c4.8,0,8.2-2.1,9.3-6.3h5.8V43.6z M389,34.6c-0.3-5.1-4.5-9.2-10.3-9.2c-6.1,0-9.8,4.2-10.2,9.2
		H389z"/>
</g>
<g>
	<path d="M396.5,26.9c-1.9,0-3.2-1.4-3.2-3.3c0-2,1.5-3.3,3.2-3.3s3.2,1.3,3.2,3.3S398.2,26.9,396.5,26.9z M396.5,20.9
		c-1.4,0-2.5,1.1-2.5,2.7c0,1.5,1,2.7,2.5,2.7c1.4,0,2.5-1.1,2.5-2.7S397.9,20.9,396.5,20.9z M395.8,25.5h-0.6v-3.6h1.4
		c0.9,0,1.3,0.3,1.3,1s-0.4,0.9-0.9,1l1,1.6h-0.7l-0.9-1.5h-0.6L395.8,25.5L395.8,25.5z M396.5,23.4c0.4,0,0.8,0,0.8-0.6
		c0-0.4-0.4-0.5-0.8-0.5h-0.7v1.1H396.5z"/>
</g>
</svg>
