<?xml version="1.0" encoding="utf-8"?>
<!-- Generator: Adobe Illustrator 22.0.1, SVG Export Plug-In . SVG Version: 6.00 Build 0)  -->
<svg version="1.1" id="Layer_1" xmlns="http://www.w3.org/2000/svg" xmlns:xlink="http://www.w3.org/1999/xlink" x="0px" y="0px"
	 viewBox="0 0 281.4 66" style="enable-background:new 0 0 281.4 66;" xml:space="preserve">
<style type="text/css">
	.st0{fill:#020202;}
</style>
<g>
	<g>
		<path class="st0" d="M249.7,62.1h0.8c0.2-0.4,0.3-0.8,0.5-1c0.2-0.3,0.6-0.4,1.1-0.4c0.6,0,1.4,0.2,2.2,0.5
			c0.9,0.4,1.7,0.7,2.4,0.9c0.6,0.2,1.2,0.4,1.7,0.5s1,0.2,1.6,0.3s1.1,0.2,1.7,0.2s1.3,0.1,2.1,0.1c2.2,0,4.2-0.4,6-1.3
			c1.8-0.8,3.2-2,4.5-3.4s2.2-3.1,2.8-4.9c0.7-1.9,1-3.8,1-5.9c0-2.2-0.4-4.1-1.1-5.5c-0.7-1.5-1.6-2.6-2.7-3.4
			c-1-0.9-2.1-1.5-3.2-2c-1.1-0.4-2-0.8-2.7-1l-6.8-2.5c-1-0.4-1.9-0.7-2.9-1.2c-0.9-0.5-1.8-1-2.6-1.7c-0.8-0.7-1.4-1.5-1.9-2.5
			s-0.7-2.2-0.7-3.6c0-1.7,0.3-3.2,0.9-4.3s1.4-2,2.3-2.8c0.9-0.7,1.9-1.2,3-1.5s2.1-0.4,3-0.4c1.6,0,3,0.4,4.2,1
			c1.2,0.7,2.2,1.6,3.1,2.7s1.6,2.4,2.1,3.9s0.9,3,1.1,4.5h0.6V15.5H273c-0.3,0.6-0.5,1-0.7,1.1c-0.2,0.2-0.5,0.2-1,0.2
			s-1-0.1-1.6-0.4c-0.5-0.3-1.1-0.6-1.7-0.9c-0.6-0.3-1.4-0.6-2.3-0.9c-0.9-0.3-2-0.4-3.3-0.4c-1.8,0-3.4,0.4-5,1
			c-1.5,0.7-2.8,1.7-3.9,2.9s-1.9,2.7-2.5,4.3c-0.6,1.7-0.9,3.5-0.9,5.5c0,3,0.8,5.4,2.3,7.2c1.6,1.8,3.9,3.2,6.9,4.3l6.5,2.3
			c0.8,0.3,1.6,0.6,2.5,1.1s1.7,1.1,2.5,1.9s1.4,1.7,1.9,2.8s0.7,2.4,0.7,3.9c0,1-0.2,2.2-0.5,3.4c-0.3,1.3-0.8,2.4-1.6,3.4
			s-1.8,1.9-3,2.7c-1.3,0.7-2.9,1-4.9,1c-0.7,0-1.5,0-2.3-0.1s-1.7-0.2-2.6-0.5s-1.8-0.7-2.6-1.3c-0.9-0.6-1.7-1.4-2.5-2.5
			c-0.8-1-1.5-2.4-2.1-4c-0.7-1.6-1.2-3.6-1.6-6h-0.6v14.3h0.6V62.1z M242.4,32.5h1.5l1.2-20.6c0.1-0.5,0.1-1,0.1-1.4V9
			c0-1-0.2-1.9-0.4-2.6c-0.3-0.7-0.8-1-1.6-1s-1.4,0.3-1.6,1s-0.4,1.5-0.4,2.6v1.5c0,0.4,0,0.9,0.1,1.4L242.4,32.5z M199.8,62.1
			h13.3v-0.9h-6.3v-42h0.1l23.7,43.9h1.1V16.4h6.3v-0.9h-13.3v0.9h6.3v34.7l-0.1-0.1l-19.1-35.6h-12.1v0.9h6.3v44.8h-6.3L199.8,62.1
			L199.8,62.1z M161.7,62.1h12.1v-0.9h-6.3l5.9-18.2h13.1l5.9,18.2h-6.3v0.9h17.3v-0.9h-5l-15.3-46.9h-1.4l-15.2,46.9h-5L161.7,62.1
			L161.7,62.1z M186.1,42.1h-12.4L180,23L186.1,42.1z M119,62.1h13.4v-0.9h-6.3V17.3h0.1l13.4,44.9l13.5-45.4h0.1v44.3h-6.3V62H165
			v-0.9h-6.3V16.4h6.3v-0.9h-12.4l-10.4,35.2l-0.1-0.1l-10.4-35.1H119v0.9h6.3v44.8H119V62.1z M80.6,62.1h12.1v-0.9h-6.3l6-18.2
			h13.1l5.9,18.2H105v0.9h17.4v-0.9h-5l-15.3-46.9h-1.4L85.6,61.2h-5V62.1L80.6,62.1z M105.1,42.1H92.7L98.9,23L105.1,42.1z
			 M49.6,47.9c1,2.9,2.3,5.5,4.1,7.8c1.7,2.2,3.8,4.1,6.2,5.4c2.4,1.4,5,2,7.8,2c2.7,0,5.3-0.7,7.7-2.1c2.4-1.4,4.4-3.2,6.2-5.5
			c1.8-2.2,3.1-4.9,4.2-7.8c1-2.9,1.5-5.9,1.5-9c0-3.5-0.6-6.7-1.7-9.7s-2.6-5.5-4.4-7.7s-3.9-3.9-6.3-5.1c-2.3-1.3-4.8-1.9-7.2-1.9
			c-2.3,0-4.6,0.6-6.9,1.9s-4.4,3-6.3,5.1c-1.8,2.2-3.4,4.8-4.5,7.7c-1.2,3-1.8,6.2-1.8,9.7C48.1,41.9,48.6,44.9,49.6,47.9 M55.1,30
			c0.3-2.8,1-5.3,1.9-7.5s2.3-4,4-5.3s3.9-2,6.6-2s4.9,0.7,6.6,2s3,3.1,4,5.3s1.6,4.7,1.9,7.5s0.5,5.7,0.5,8.7
			c0,3.9-0.2,7.4-0.7,10.3c-0.5,2.9-1.2,5.4-2.2,7.3c-1,2-2.4,3.4-4.1,4.4c-1.7,0.9-3.7,1.5-6.1,1.5s-4.4-0.5-6.1-1.5
			c-1.6-0.9-3-2.4-4-4.4s-1.8-4.4-2.2-7.3s-0.7-6.4-0.7-10.3C54.7,35.7,54.8,32.8,55.1,30 M2.7,62.1h23V61h-7.9V31H25
			c0.8,0,1.8,0.1,2.9,0.2c1.1,0.2,2.1,0.6,3.2,1.3c1,0.7,1.9,1.8,2.7,3.4c0.8,1.6,1.3,3.7,1.4,6.5l0.5,7.6c0.2,2.1,0.4,3.9,0.7,5.5
			c0.4,1.6,0.9,2.9,1.7,4s1.8,1.9,3,2.5s2.8,0.8,4.8,0.8c1,0,1.8-0.1,2.5-0.2c0.7-0.2,1.3-0.3,1.7-0.5s0.9-0.5,1.2-0.7
			s0.6-0.5,0.8-0.7l-0.6-0.9c-0.5,0.6-1.1,1-1.8,1.3s-1.3,0.4-1.9,0.4c-1.4,0-2.4-0.6-3-1.7c-0.6-1.1-1-2.5-1.4-3.9
			c-0.2-0.9-0.3-2.1-0.4-3.5c-0.1-1.4-0.2-2.8-0.2-4.3c-0.1-1.5-0.2-2.9-0.3-4.3c-0.1-1.4-0.3-2.7-0.6-3.8c-0.5-1.9-1.3-3.4-2.4-4.6
			c-1.1-1.2-2.4-2.1-3.8-2.9c-1.4-0.7-2.7-1.3-4-1.5c-1.3-0.3-2.3-0.5-3.1-0.6v-0.2c2.8-0.4,5-1.1,6.6-2.3s2.9-2.4,3.8-3.7
			c0.9-1.4,1.5-2.7,1.7-4c0.3-1.3,0.4-2.3,0.4-3.2c0-1.7-0.4-3.4-1-5.3S38.3,8,36.6,6.5c-1.9-1.7-3.9-2.8-6-3.1S26,2.8,23.2,2.8
			c-0.6,0-1.1,0-1.7,0.1S20.3,3,19.7,3c-0.6-0.1-1.1,0-1.7,0s-1.1,0-1.7,0H2.7v1.1h7.9v56.8H2.7V62.1z M17.8,4.2
			C18.4,4.1,19.1,4.1,20,4s1.7-0.1,2.6-0.1c1.3,0,2.5,0.2,3.8,0.4c1.3,0.3,2.4,0.8,3.4,1.7s1.9,2.2,2.5,3.9c0.6,1.7,0.9,4.1,0.9,6.9
			c0,2.6-0.2,4.6-0.6,6.3c-0.4,1.7-1,3-1.8,3.9c-0.8,1-1.7,1.7-2.8,2c-1.1,0.4-2.3,0.6-3.7,0.6h-6.6L17.8,4.2L17.8,4.2z"/>
	</g>
</g>
<g>
	<g>
		<path class="st0" d="M249.7,62.1h0.8c0.2-0.4,0.3-0.8,0.5-1c0.2-0.3,0.6-0.4,1.1-0.4c0.6,0,1.4,0.2,2.2,0.5
			c0.9,0.4,1.7,0.7,2.4,0.9c0.6,0.2,1.2,0.4,1.7,0.5s1,0.2,1.6,0.3s1.1,0.2,1.7,0.2s1.3,0.1,2.1,0.1c2.2,0,4.2-0.4,6-1.3
			c1.8-0.8,3.2-2,4.5-3.4s2.2-3.1,2.8-4.9c0.7-1.9,1-3.8,1-5.9c0-2.2-0.4-4.1-1.1-5.5c-0.7-1.5-1.6-2.6-2.7-3.4
			c-1-0.9-2.1-1.5-3.2-2c-1.1-0.4-2-0.8-2.7-1l-6.8-2.5c-1-0.4-1.9-0.7-2.9-1.2c-0.9-0.5-1.8-1-2.6-1.7c-0.8-0.7-1.4-1.5-1.9-2.5
			s-0.7-2.2-0.7-3.6c0-1.7,0.3-3.2,0.9-4.3s1.4-2,2.3-2.8c0.9-0.7,1.9-1.2,3-1.5s2.1-0.4,3-0.4c1.6,0,3,0.4,4.2,1
			c1.2,0.7,2.2,1.6,3.1,2.7s1.6,2.4,2.1,3.9s0.9,3,1.1,4.5h0.6V15.5H273c-0.3,0.6-0.5,1-0.7,1.1c-0.2,0.2-0.5,0.2-1,0.2
			s-1-0.1-1.6-0.4c-0.5-0.3-1.1-0.6-1.7-0.9c-0.6-0.3-1.4-0.6-2.3-0.9c-0.9-0.3-2-0.4-3.3-0.4c-1.8,0-3.4,0.4-5,1
			c-1.5,0.7-2.8,1.7-3.9,2.9s-1.9,2.7-2.5,4.3c-0.6,1.7-0.9,3.5-0.9,5.5c0,3,0.8,5.4,2.3,7.2c1.6,1.8,3.9,3.2,6.9,4.3l6.5,2.3
			c0.8,0.3,1.6,0.6,2.5,1.1s1.7,1.1,2.5,1.9s1.4,1.7,1.9,2.8s0.7,2.4,0.7,3.9c0,1-0.2,2.2-0.5,3.4c-0.3,1.3-0.8,2.4-1.6,3.4
			s-1.8,1.9-3,2.7c-1.3,0.7-2.9,1-4.9,1c-0.7,0-1.5,0-2.3-0.1s-1.7-0.2-2.6-0.5s-1.8-0.7-2.6-1.3c-0.9-0.6-1.7-1.4-2.5-2.5
			c-0.8-1-1.5-2.4-2.1-4c-0.7-1.6-1.2-3.6-1.6-6h-0.6v14.3h0.6V62.1z M242.4,32.5h1.5l1.2-20.6c0.1-0.5,0.1-1,0.1-1.4V9
			c0-1-0.2-1.9-0.4-2.6c-0.3-0.7-0.8-1-1.6-1s-1.4,0.3-1.6,1s-0.4,1.5-0.4,2.6v1.5c0,0.4,0,0.9,0.1,1.4L242.4,32.5z M199.8,62.1
			h13.3v-0.9h-6.3v-42h0.1l23.7,43.9h1.1V16.4h6.3v-0.9h-13.3v0.9h6.3v34.7l-0.1-0.1l-19.1-35.6h-12.1v0.9h6.3v44.8h-6.3L199.8,62.1
			L199.8,62.1z M161.7,62.1h12.1v-0.9h-6.3l5.9-18.2h13.1l5.9,18.2h-6.3v0.9h17.3v-0.9h-5l-15.3-46.9h-1.4l-15.2,46.9h-5L161.7,62.1
			L161.7,62.1z M186.1,42.1h-12.4L180,23L186.1,42.1z M119,62.1h13.4v-0.9h-6.3V17.3h0.1l13.4,44.9l13.5-45.4h0.1v44.3h-6.3V62H165
			v-0.9h-6.3V16.4h6.3v-0.9h-12.4l-10.4,35.2l-0.1-0.1l-10.4-35.1H119v0.9h6.3v44.8H119V62.1z M80.6,62.1h12.1v-0.9h-6.3l6-18.2
			h13.1l5.9,18.2H105v0.9h17.4v-0.9h-5l-15.3-46.9h-1.4L85.6,61.2h-5V62.1L80.6,62.1z M105.1,42.1H92.7L98.9,23L105.1,42.1z
			 M49.6,47.9c1,2.9,2.3,5.5,4.1,7.8c1.7,2.2,3.8,4.1,6.2,5.4c2.4,1.4,5,2,7.8,2c2.7,0,5.3-0.7,7.7-2.1c2.4-1.4,4.4-3.2,6.2-5.5
			c1.8-2.2,3.1-4.9,4.2-7.8c1-2.9,1.5-5.9,1.5-9c0-3.5-0.6-6.7-1.7-9.7s-2.6-5.5-4.4-7.7s-3.9-3.9-6.3-5.1c-2.3-1.3-4.8-1.9-7.2-1.9
			c-2.3,0-4.6,0.6-6.9,1.9s-4.4,3-6.3,5.1c-1.8,2.2-3.4,4.8-4.5,7.7c-1.2,3-1.8,6.2-1.8,9.7C48.1,41.9,48.6,44.9,49.6,47.9 M55.1,30
			c0.3-2.8,1-5.3,1.9-7.5s2.3-4,4-5.3s3.9-2,6.6-2s4.9,0.7,6.6,2s3,3.1,4,5.3s1.6,4.7,1.9,7.5s0.5,5.7,0.5,8.7
			c0,3.9-0.2,7.4-0.7,10.3c-0.5,2.9-1.2,5.4-2.2,7.3c-1,2-2.4,3.4-4.1,4.4c-1.7,0.9-3.7,1.5-6.1,1.5s-4.4-0.5-6.1-1.5
			c-1.6-0.9-3-2.4-4-4.4s-1.8-4.4-2.2-7.3s-0.7-6.4-0.7-10.3C54.7,35.7,54.8,32.8,55.1,30 M2.7,62.1h23V61h-7.9V31H25
			c0.8,0,1.8,0.1,2.9,0.2c1.1,0.2,2.1,0.6,3.2,1.3c1,0.7,1.9,1.8,2.7,3.4c0.8,1.6,1.3,3.7,1.4,6.5l0.5,7.6c0.2,2.1,0.4,3.9,0.7,5.5
			c0.4,1.6,0.9,2.9,1.7,4s1.8,1.9,3,2.5s2.8,0.8,4.8,0.8c1,0,1.8-0.1,2.5-0.2c0.7-0.2,1.3-0.3,1.7-0.5s0.9-0.5,1.2-0.7
			s0.6-0.5,0.8-0.7l-0.6-0.9c-0.5,0.6-1.1,1-1.8,1.3s-1.3,0.4-1.9,0.4c-1.4,0-2.4-0.6-3-1.7c-0.6-1.1-1-2.5-1.4-3.9
			c-0.2-0.9-0.3-2.1-0.4-3.5c-0.1-1.4-0.2-2.8-0.2-4.3c-0.1-1.5-0.2-2.9-0.3-4.3c-0.1-1.4-0.3-2.7-0.6-3.8c-0.5-1.9-1.3-3.4-2.4-4.6
			c-1.1-1.2-2.4-2.1-3.8-2.9c-1.4-0.7-2.7-1.3-4-1.5c-1.3-0.3-2.3-0.5-3.1-0.6v-0.2c2.8-0.4,5-1.1,6.6-2.3s2.9-2.4,3.8-3.7
			c0.9-1.4,1.5-2.7,1.7-4c0.3-1.3,0.4-2.3,0.4-3.2c0-1.7-0.4-3.4-1-5.3S38.3,8,36.6,6.5c-1.9-1.7-3.9-2.8-6-3.1S26,2.8,23.2,2.8
			c-0.6,0-1.1,0-1.7,0.1S20.3,3,19.7,3c-0.6-0.1-1.1,0-1.7,0s-1.1,0-1.7,0H2.7v1.1h7.9v56.8H2.7V62.1z M17.8,4.2
			C18.4,4.1,19.1,4.1,20,4s1.7-0.1,2.6-0.1c1.3,0,2.5,0.2,3.8,0.4c1.3,0.3,2.4,0.8,3.4,1.7s1.9,2.2,2.5,3.9c0.6,1.7,0.9,4.1,0.9,6.9
			c0,2.6-0.2,4.6-0.6,6.3c-0.4,1.7-1,3-1.8,3.9c-0.8,1-1.7,1.7-2.8,2c-1.1,0.4-2.3,0.6-3.7,0.6h-6.6L17.8,4.2L17.8,4.2z"/>
	</g>
</g>
</svg>
