<?xml version="1.0" encoding="utf-8"?>
<!-- Generator: Adobe Illustrator 19.2.1, SVG Export Plug-In . SVG Version: 6.00 Build 0)  -->
<svg version="1.1" id="Layer_1" xmlns="http://www.w3.org/2000/svg" xmlns:xlink="http://www.w3.org/1999/xlink" x="0px" y="0px"
	 viewBox="0 0 734.3 127.3" style="enable-background:new 0 0 734.3 127.3;" xml:space="preserve">
<style type="text/css">
	.st0{fill:#020202;}
</style>
<g>
	<path class="st0" d="M2.7,96.9h18.8v1.7c0,4.2,0.6,7.5,1.9,10s3,3.7,5.1,3.7c2.6,0,4.7-0.8,6.3-2.4s2.4-3.7,2.4-6.3
		c0-4.5-4.4-9.5-13.2-15.1c-2-1.2-3.5-2.2-4.6-2.9c-7.5-4.9-12.1-9-14-12.1s-2.8-7-2.8-11.7c0-7.1,2.3-12.8,6.9-17.2
		S20.2,38,27.7,38c8.4,0,14.7,2,19,5.9s6.5,9.7,6.5,17.3c0,0.3,0,0.7-0.1,1.3c0,0.6-0.1,1.1-0.1,1.5l-18-0.2c0-0.3,0.1-0.7,0.1-1.1
		c0-0.4,0-0.9,0-1.6c0-3.4-0.6-6-1.8-7.7s-3-2.5-5.4-2.5c-2.1,0-3.8,0.7-5.1,2.1c-1.3,1.4-2,3.1-2,5.3c0,3.6,4,8,12,13.2
		c3.5,2.3,6.3,4.2,8.4,5.7c5.6,4.1,9.4,7.8,11.4,11.3s3.1,7.7,3.1,12.6c0,8.3-2.5,14.6-7.5,18.8s-12.4,6.3-22.1,6.3
		c-7.6,0-13.4-2.2-17.5-6.7s-6.1-10.9-6.1-19.2c0-0.9,0-1.5,0-2C2.6,97.8,2.6,97.3,2.7,96.9L2.7,96.9z"/>
	<path class="st0" d="M73.1,124.9L55.2,40.4h19.9l5.3,34.9c1,6.6,1.8,12.7,2.3,18.3c0.5,5.6,0.8,10.7,0.8,15.3
		c0.8-5.3,1.8-10.8,2.9-16.6c1.1-5.8,2.3-11.8,3.7-17.9l7.6-34.1h20l9,42.6c0.9,3.9,1.6,8.1,2.2,12.3c0.6,4.3,1.1,8.8,1.5,13.6
		c0.5-5.9,1.4-13.3,2.9-22c0.3-1.8,0.5-3,0.6-3.9l6.9-42.6h19.6L141,124.9h-21l-8.3-38.6c-0.9-4.5-1.7-9.2-2.3-13.9
		c-0.6-4.7-1.1-9.6-1.3-14.5c-0.9,6.7-1.7,12.3-2.5,16.9s-1.6,8.5-2.4,11.9l-9.6,38.2L73.1,124.9L73.1,124.9z"/>
	<path class="st0" d="M181.2,3.7v20.1h-19.4V3.7H181.2L181.2,3.7z M181.2,40.4v84.5h-19.4V40.4H181.2L181.2,40.4z"/>
	<path class="st0" d="M207.6,49.1c1.6-3.5,3.7-6.2,6.3-8.1c2.6-1.8,5.7-2.8,9.2-2.8c4.5,0,8.3,1.1,11.3,3.4c3.1,2.3,5.2,5.5,6.5,9.6
		c1.8-4.4,4.1-7.6,6.8-9.8s6-3.3,9.6-3.3c6.1,0,10.7,1.9,13.9,5.7c3.2,3.8,4.8,9.3,4.8,16.6v64.4h-19.4V67.1c0-5.6-0.5-9.4-1.4-11.4
		s-2.6-3-4.9-3c-2.5,0-4.6,1.1-6.1,3.3c-1.6,2.2-2.3,5.1-2.3,8.7v60.2h-19.4V67.1c0-5.5-0.5-9.3-1.5-11.3c-1-2.1-2.6-3.1-5-3.1
		c-2.5,0-4.5,1.1-6,3.3s-2.3,5.1-2.3,8.8V125h-19.4V55.5c0-3.9,0-6.9-0.1-9s-0.2-4.1-0.5-6.1H207L207.6,49.1L207.6,49.1z"/>
	<path class="st0" d="M280.4,96.9h18.8v1.7c0,4.2,0.6,7.5,1.9,10s3,3.7,5.2,3.7c2.6,0,4.7-0.8,6.3-2.4c1.6-1.6,2.4-3.7,2.4-6.3
		c0-4.5-4.4-9.5-13.2-15.1c-2-1.2-3.5-2.2-4.6-2.9c-7.5-4.9-12.1-9-14-12.1s-2.8-7-2.8-11.7c0-7.1,2.3-12.8,6.9-17.2
		S298,38,305.5,38c8.4,0,14.7,2,19,5.9s6.4,9.7,6.4,17.3c0,0.3,0,0.7-0.1,1.3s-0.1,1.1-0.1,1.5l-18.2-0.1c0-0.3,0.1-0.7,0.1-1.1
		c0-0.4,0-0.9,0-1.6c0-3.4-0.6-6-1.8-7.7c-1.2-1.7-3-2.5-5.4-2.5c-2.1,0-3.8,0.7-5.1,2.1c-1.3,1.4-2,3.1-2,5.3c0,3.6,4,8,12,13.2
		c3.5,2.3,6.3,4.2,8.4,5.7c5.6,4.1,9.4,7.8,11.4,11.3c2.1,3.5,3.1,7.7,3.1,12.6c0,8.3-2.5,14.6-7.5,18.8s-12.4,6.3-22.2,6.3
		c-7.6,0-13.4-2.2-17.5-6.7s-6.1-10.9-6.1-19.2c0-0.9,0-1.5,0-2C280.3,97.8,280.3,97.3,280.4,96.9L280.4,96.9z"/>
	<path class="st0" d="M372.1,40.4h19.7v73.3c0,2.8,0,5,0.1,6.6s0.2,3,0.4,4.5h-19.6l-0.7-9c-1.6,3.6-3.7,6.3-6.3,8.2
		c-2.6,1.8-5.6,2.8-8.9,2.8c-6,0-10.7-1.9-13.9-5.8c-3.2-3.9-4.8-9.4-4.8-16.6v-64h19.4V98c0,5.6,0.5,9.4,1.4,11.3
		c0.9,2,2.6,3,4.9,3c2.5,0,4.5-1.1,6-3.2s2.2-5,2.2-8.7L372.1,40.4L372.1,40.4z"/>
	<path class="st0" d="M418.3,3.7v20.1h-19.4V3.7H418.3L418.3,3.7z M418.3,40.4v84.5h-19.4V40.4H418.3L418.3,40.4z"/>
	<path class="st0" d="M459,124.5c-2.9,0.4-5.6,0.8-8,1s-4.4,0.3-6,0.3c-6,0-10.4-1.8-13.3-5.4c-2.8-3.6-4.2-9.3-4.2-17V54.6h-9.3
		V40.4h9.3V26l19.1-10.3v24.7H459v14.2h-12.3v45.9c0,4.3,0.5,7.1,1.4,8.4s2.8,1.9,5.7,1.9c0.8,0,2.2-0.1,4.3-0.2
		c0.4-0.1,0.7-0.1,0.9-0.1V124.5L459,124.5z"/>
	<path class="st0" d="M457.4,96.9h18.8v1.7c0,4.2,0.6,7.5,1.9,10s3,3.7,5.1,3.7c2.6,0,4.7-0.8,6.3-2.4c1.6-1.6,2.4-3.7,2.4-6.3
		c0-4.5-4.4-9.5-13.2-15.1c-2-1.2-3.5-2.2-4.6-2.9c-7.5-4.9-12.1-9-14-12.1s-2.8-7-2.8-11.7c0-7.1,2.3-12.8,6.9-17.2
		s10.7-6.6,18.2-6.6c8.4,0,14.7,2,19,5.9s6.5,9.7,6.5,17.3c0,0.3,0,0.7-0.1,1.3c0,0.6-0.1,1.1-0.1,1.5l-18.2-0.1
		c0-0.3,0.1-0.7,0.1-1.1c0-0.4,0-0.9,0-1.6c0-3.4-0.6-6-1.8-7.7c-1.2-1.7-3-2.5-5.4-2.5c-2.1,0-3.8,0.7-5.1,2.1
		c-1.3,1.4-2,3.1-2,5.3c0,3.6,4,8,12,13.2c3.5,2.3,6.3,4.2,8.4,5.7c5.6,4.1,9.4,7.8,11.4,11.3s3.1,7.7,3.1,12.6
		c0,8.3-2.5,14.6-7.5,18.8s-12.4,6.3-22.2,6.3c-7.6,0-13.4-2.2-17.5-6.7s-6.1-10.9-6.1-19.2c0-0.9,0-1.5,0-2
		C457.3,97.8,457.3,97.3,457.4,96.9L457.4,96.9z"/>
	<path class="st0" d="M519.8,124.9V49h-11.1v-8.6h11.1V22.5c0-4.9,0.3-8.5,1-10.8s1.9-4.2,3.5-5.7s3.8-2.5,6.5-3.2s6.4-1,11.1-1v8.6
		H540c-4.7,0-7.8,1-9.4,2.8c-1.6,1.9-2.4,6.5-2.4,13.9v13.2H542V49h-13.9v75.9H519.8L519.8,124.9z"/>
	<path class="st0" d="M541.5,82.7c0-16.3,1.9-27.7,5.6-34.4c3.7-6.7,10-10,18.8-10c8.7,0,15,3.3,18.7,10s5.6,18.1,5.6,34.4
		c0,16.4-1.8,27.9-5.5,34.5s-9.9,9.9-18.7,9.9s-15.1-3.4-18.9-10.1C543.4,110.2,541.5,98.8,541.5,82.7L541.5,82.7z M565.9,118.5
		c5.6,0,9.6-2.5,12.1-7.6c2.4-5.1,3.6-13.7,3.6-25.9c0-14.7-1.2-24.7-3.5-30s-6.4-8-12.2-8s-9.8,2.6-12.2,7.9s-3.6,14.6-3.6,27.9
		c0,13.5,1.2,22.9,3.5,28C556,115.9,560.1,118.5,565.9,118.5L565.9,118.5z"/>
	<path class="st0" d="M597.4,124.9V51.4c0-1.5-0.1-3.3-0.3-5.3s-0.5-4.3-0.9-6.9h8.7l0.9,12.2c2.2-4.4,4.7-7.7,7.5-9.9
		c2.9-2.2,6.1-3.2,9.8-3.2h1.6v8.9h-1.8c-5.3,0-9.5,2.1-12.5,6.3s-4.5,10-4.5,17.5v54L597.4,124.9L597.4,124.9z"/>
	<path class="st0" d="M626.5,62.3v-1.7c0-7.3,2.3-12.9,6.9-16.7c4.6-3.8,11.4-5.7,20.3-5.7c8.8,0,15.3,2,19.4,5.9
		c4.1,3.9,6.2,10.2,6.2,18.6V105c0,3.7,0.1,7.2,0.3,10.5s0.6,6.4,1,9.3h-17.3l-1.5-9.6c-1.7,3-4.3,5.5-7.7,7.4s-7,2.8-10.8,2.8
		c-5.7,0-10.2-2.4-13.5-7.1c-3.3-4.8-5-11.2-5-19.3c0-9.5,2.4-16.5,7.2-21.1s12.6-7.2,23.3-7.9h6.1v-3.9c0-5.8-0.6-10-1.8-12.3
		c-1.2-2.4-3.2-3.6-6-3.6c-3.1,0-5.4,1-6.9,3c-1.6,2-2.3,5-2.3,9L626.5,62.3L626.5,62.3z M661.4,83c-6.9,0-11.6,1.1-14.3,3.4
		c-2.6,2.3-3.9,6.3-3.9,12.1c0,4.2,0.7,7.4,2,9.7c1.3,2.3,3.1,3.5,5.4,3.5c3.5,0,6.1-1.8,8-5.5s2.8-8.9,2.8-15.8V83L661.4,83z"/>
	<polygon class="st0" points="686.7,124.9 686.7,3.7 705.8,3.7 705.8,124.9 	"/>
	<polygon class="st0" points="712.5,124.9 712.5,3.7 731.7,3.7 731.7,124.9 	"/>
</g>
</svg>
